<?xml version="1.0" encoding="UTF-8"?>
<!DOCTYPE svg PUBLIC "-//W3C//DTD SVG 1.1//EN" "http://www.w3.org/Graphics/SVG/1.1/DTD/svg11.dtd">
<!-- Creator: CorelDRAW X7 -->
<svg xmlns="http://www.w3.org/2000/svg" xml:space="preserve" width="277px" height="351px" version="1.1" style="shape-rendering:geometricPrecision; text-rendering:geometricPrecision; image-rendering:optimizeQuality; fill-rule:evenodd; clip-rule:evenodd"
viewBox="0 0 277000 350745"
 xmlns:xlink="http://www.w3.org/1999/xlink">
 <defs>
  <style type="text/css">
   <![CDATA[
    .fil1 {fill:#0067A4}
    .fil5 {fill:#FEFEFE;fill-rule:nonzero}
    .fil7 {fill:#0067A4;fill-rule:nonzero}
    .fil4 {fill:url(#id0)}
    .fil0 {fill:url(#id1)}
    .fil3 {fill:url(#id2)}
    .fil6 {fill:url(#id3)}
    .fil2 {fill:url(#id4)}
   ]]>
  </style>
  <linearGradient id="id0" gradientUnits="userSpaceOnUse" x1="117480" y1="183658" x2="181421" y2="183658">
   <stop offset="0" style="stop-opacity:1; stop-color:#008AC2"/>
   <stop offset="1" style="stop-opacity:1; stop-color:#FEFEFE"/>
  </linearGradient>
  <linearGradient id="id1" gradientUnits="userSpaceOnUse" x1="119708" y1="262357" x2="119708" y2="33080">
   <stop offset="0" style="stop-opacity:1; stop-color:#0067A4"/>
   <stop offset="0.670588" style="stop-opacity:1; stop-color:#7FB2D1"/>
   <stop offset="1" style="stop-opacity:1; stop-color:#FEFEFE"/>
  </linearGradient>
  <linearGradient id="id2" gradientUnits="userSpaceOnUse" x1="86280.5" y1="183553" x2="155223" y2="183553">
   <stop offset="0" style="stop-opacity:1; stop-color:#008AC2"/>
   <stop offset="0.160784" style="stop-opacity:1; stop-color:#7FC4E0"/>
   <stop offset="1" style="stop-opacity:1; stop-color:#FEFEFE"/>
  </linearGradient>
  <linearGradient id="id3" gradientUnits="userSpaceOnUse" xlink:href="#id0" x1="105032" y1="183553" x2="173974" y2="183553">
  </linearGradient>
  <linearGradient id="id4" gradientUnits="userSpaceOnUse" x1="57993.3" y1="183449" x2="181418" y2="183449">
   <stop offset="0" style="stop-opacity:1; stop-color:#008AC2"/>
   <stop offset="0.219608" style="stop-opacity:1; stop-color:#BCDDF0"/>
   <stop offset="0.329412" style="stop-opacity:1; stop-color:#E8F3FA"/>
   <stop offset="0.478431" style="stop-opacity:1; stop-color:#FEFEFE"/>
   <stop offset="1" style="stop-opacity:1; stop-color:#FEFEFE"/>
  </linearGradient>
 </defs>
 <g id="Слой_x0020_1">
  <metadata id="CorelCorpID_0Corel-Layer"/>
  <g id="_870341536">
   <path class="fil0" d="M5067 230041c76425,0 152852,0 229279,0 -36705,-54302 -80361,-110343 -117066,-164646 -39721,54303 -72492,110344 -112213,164646zm38974 -16528l72934 -113709 78394 113709 -151328 0z"/>
   <path class="fil1" d="M277000 228656l-23864 -132 -133247 -188575 11670 -11203 145441 199910zm-159228 -218953l-12491 13503 -3490 -5406 12937 -11279 3044 3182zm26465 6663c-25834,19676 -59071,47683 -70815,93971 -8098,-34448 41130,-100535 59275,-110337l11540 16366z"/>
   <polygon class="fil2" points="57991,229820 117479,137076 90990,229820 "/>
   <polygon class="fil3" points="86279,229820 117479,137076 155223,230029 "/>
   <polygon class="fil4" points="155222,230029 117479,137285 181420,230029 "/>
   <path class="fil5" d="M12803 248867l0 -2162 6418 -13 0 6850c-985,959 -2001,1678 -3049,2163 -1047,482 -2123,722 -3224,722 -1489,0 -2844,-387 -4058,-1165 -1217,-774 -2133,-1900 -2755,-3368 -621,-1469 -931,-3113 -931,-4927 0,-1797 310,-3474 928,-5031 613,-1561 1503,-2718 2660,-3475 1157,-753 2491,-1131 4001,-1131 1093,0 2084,215 2970,650 886,429 1581,1031 2081,1806 505,773 886,1780 1150,3023l-1809 606c-229,-941 -512,-1681 -847,-2218 -339,-538 -821,-968 -1450,-1291 -624,-322 -1323,-486 -2085,-486 -918,0 -1711,172 -2378,512 -669,339 -1206,786 -1618,1341 -410,555 -728,1162 -957,1829 -385,1139 -578,2377 -578,3714 0,1648 232,3023 699,4133 465,1109 1142,1931 2031,2468 889,538 1830,809 2829,809 872,0 1719,-207 2544,-615 829,-404 1453,-838 1880,-1304l0 -3440 -4452 0zm16648 2938l1923 288c-303,1371 -865,2434 -1683,3190 -823,754 -1870,1131 -3144,1131 -1605,0 -2878,-602 -3816,-1806 -942,-1204 -1412,-2894 -1412,-5070 0,-2252 477,-3998 1426,-5241 952,-1244 2184,-1867 3701,-1867 1467,0 2666,611 3594,1829 932,1216 1397,2931 1397,5137 0,138 -4,340 -11,607l-8184 0c67,1471 409,2597 1023,3375 614,783 1377,1175 2293,1175 681,0 1263,-220 1747,-659 483,-434 863,-1131 1146,-2089zm-6107 -3668l6128 0c-81,-1123 -317,-1969 -702,-2529 -593,-872 -1361,-1311 -2303,-1311 -855,0 -1574,348 -2156,1044 -583,698 -903,1631 -967,2796zm9673 1285c0,-2476 565,-4312 1698,-5503 941,-989 2092,-1489 3449,-1489 1510,0 2745,602 3701,1811 960,1204 1436,2869 1436,4992 0,1725 -212,3079 -634,4064 -425,989 -1041,1754 -1850,2301 -811,546 -1693,816 -2653,816 -1534,0 -2776,-598 -3724,-1801 -949,-1201 -1423,-2929 -1423,-5191zm1913 0c0,1717 306,2998 921,3849 614,856 1386,1282 2313,1282 925,0 1694,-431 2308,-1287 611,-856 916,-2163 916,-3917 0,-1655 -305,-2911 -924,-3762 -616,-851 -1382,-1277 -2300,-1277 -927,0 -1699,426 -2313,1272 -615,848 -921,2129 -921,3840zm10512 6691l0 -18469 1860 0 0 18469 -1860 0zm4051 -6691c0,-2476 564,-4312 1696,-5503 942,-989 2092,-1489 3451,-1489 1509,0 2744,602 3700,1811 960,1204 1436,2869 1436,4992 0,1725 -211,3079 -635,4064 -424,989 -1041,1754 -1849,2301 -811,546 -1693,816 -2652,816 -1535,0 -2777,-598 -3726,-1801 -948,-1201 -1421,-2929 -1421,-5191zm1911 0c0,1717 308,2998 921,3849 613,856 1387,1282 2315,1282 924,0 1692,-431 2306,-1287 611,-856 917,-2163 917,-3917 0,-1655 -306,-2911 -924,-3762 -617,-851 -1382,-1277 -2299,-1277 -928,0 -1702,426 -2315,1272 -613,848 -921,2129 -921,3840zm10213 7801l1810 327c73,679 286,1173 628,1487 463,417 1095,629 1890,629 865,0 1529,-212 1998,-629 469,-421 783,-1010 949,-1763 99,-464 141,-1431 134,-2910 -812,1164 -1825,1749 -3038,1749 -1510,0 -2678,-662 -3503,-1991 -825,-1323 -1242,-2920 -1242,-4773 0,-1276 190,-2455 568,-3534 381,-1079 931,-1914 1652,-2503 720,-584 1566,-882 2535,-882 1295,0 2365,641 3204,1919l0 -1613 1718 0 0 11563c0,2081 -176,3560 -522,4429 -349,868 -900,1556 -1654,2059 -755,504 -1683,758 -2787,758 -1309,0 -2368,-361 -3172,-1080 -807,-718 -1196,-1798 -1168,-3242zm1539 -8037c0,1754 285,3036 860,3840 572,808 1288,1208 2149,1208 853,0 1570,-400 2148,-1199 579,-804 868,-2060 868,-3776 0,-1638 -296,-2873 -893,-3702 -596,-831 -1316,-1247 -2155,-1247 -825,0 -1528,408 -2110,1230 -578,817 -867,2034 -867,3646zm10583 -8931l0 -2611 1863 0 0 2611 -1863 0zm0 15858l0 -13377 1863 0 0 13377 -1863 0zm11857 -4902l1827 293c-197,1534 -709,2738 -1534,3607 -822,869 -1835,1303 -3034,1303 -1500,0 -2710,-598 -3620,-1793 -913,-1196 -1373,-2911 -1373,-5147 0,-1445 199,-2709 589,-3793 396,-1083 993,-1897 1797,-2437 801,-542 1675,-814 2617,-814 1193,0 2170,370 2924,1105 759,736 1246,1777 1462,3131l-1810 340c-173,-899 -477,-1574 -915,-2029 -437,-453 -965,-680 -1587,-680 -938,0 -1700,408 -2286,1230 -585,817 -878,2110 -878,3882 0,1798 282,3105 850,3922 565,813 1302,1222 2212,1222 731,0 1337,-275 1827,-822 490,-545 802,-1385 932,-2520zm10584 3251c-693,714 -1355,1217 -1990,1513 -639,293 -1323,439 -2053,439 -1206,0 -2132,-356 -2781,-1075 -645,-718 -969,-1637 -969,-2752 0,-657 120,-1255 367,-1798 243,-540 564,-975 958,-1302 399,-327 844,-576 1341,-745 364,-115 914,-231 1652,-338 1503,-220 2610,-477 3319,-783 7,-311 11,-508 11,-589 0,-925 -177,-1579 -529,-1953 -473,-516 -1182,-769 -2118,-769 -873,0 -1520,185 -1939,559 -417,373 -724,1035 -926,1986l-1815 -305c165,-947 436,-1716 814,-2296 378,-585 928,-1036 1645,-1350 716,-314 1544,-474 2490,-474 939,0 1697,138 2282,405 586,270 1017,606 1295,1014 275,410 467,921 579,1544 60,387 92,1084 92,2090l0 3023c0,2112 38,3445 119,4000 78,558 236,1095 470,1607l-1944 0c-190,-468 -318,-1018 -370,-1651zm-156 -5066c-677,340 -1689,624 -3037,861 -766,133 -1309,283 -1623,451 -318,167 -565,413 -733,740 -174,322 -261,679 -261,1074 0,607 190,1110 563,1515 374,399 924,601 1648,601 716,0 1354,-189 1912,-572 557,-382 971,-907 1232,-1570 200,-511 299,-1268 299,-2265l0 -835zm4724 6717l0 -18469 1859 0 0 18469 -1859 0zm10799 0l0 -18469 3020 0 3584 13077c331,1217 574,2128 723,2735 173,-672 440,-1660 808,-2963l3626 -12849 2699 0 0 18469 -1933 0 0 -15458 -4403 15458 -1810 0 -4381 -15720 0 15720 -1933 0zm17465 -15858l0 -2611 1864 0 0 2611 -1864 0zm0 15858l0 -13377 1864 0 0 13377 -1864 0zm4696 0l0 -13377 1672 0 0 1901c809,-1471 1973,-2207 3493,-2207 663,0 1270,147 1824,435 557,292 969,670 1245,1144 279,468 469,1028 582,1672 66,422 103,1157 103,2207l0 8225 -1863 0 0 -8140c0,-920 -71,-1612 -215,-2072 -145,-456 -403,-822 -769,-1092 -371,-276 -801,-413 -1299,-413 -793,0 -1474,309 -2053,919 -575,615 -860,1777 -860,3492l0 7306 -1860 0zm11779 -15858l0 -2611 1863 0 0 2611 -1863 0zm0 15858l0 -13377 1863 0 0 13377 -1863 0zm4696 0l0 -13377 1672 0 0 1901c807,-1471 1973,-2207 3493,-2207 664,0 1270,147 1824,435 557,292 970,670 1245,1144 279,468 469,1028 582,1672 68,422 102,1157 102,2207l0 8225 -1862 0 0 -8140c0,-920 -71,-1612 -216,-2072 -144,-456 -401,-822 -768,-1092 -371,-276 -801,-413 -1299,-413 -793,0 -1474,309 -2053,919 -575,615 -861,1777 -861,3492l0 7306 -1859 0zm11430 1110l1810 327c74,679 285,1173 628,1487 461,417 1093,629 1891,629 864,0 1528,-212 1997,-629 469,-421 783,-1010 948,-1763 99,-464 142,-1431 135,-2910 -812,1164 -1824,1749 -3038,1749 -1509,0 -2677,-662 -3503,-1991 -825,-1323 -1242,-2920 -1242,-4773 0,-1276 191,-2455 569,-3534 380,-1079 930,-1914 1650,-2503 720,-584 1567,-882 2536,-882 1296,0 2364,641 3204,1919l0 -1613 1719 0 0 11563c0,2081 -177,3560 -523,4429 -350,868 -900,1556 -1654,2059 -756,504 -1684,758 -2787,758 -1310,0 -2367,-361 -3172,-1080 -808,-718 -1195,-1798 -1168,-3242zm1538 -8037c0,1754 286,3036 861,3840 572,808 1288,1208 2148,1208 854,0 1570,-400 2149,-1199 578,-804 868,-2060 868,-3776 0,-1638 -296,-2873 -893,-3702 -596,-831 -1316,-1247 -2154,-1247 -827,0 -1529,408 -2111,1230 -579,817 -868,2034 -868,3646zm27504 451l2006 620c-419,2003 -1178,3534 -2267,4592 -1095,1053 -2427,1578 -4008,1578 -1634,0 -2961,-403 -3983,-1212 -1024,-813 -1803,-1987 -2336,-3523 -533,-1539 -801,-3189 -801,-4953 0,-1922 300,-3599 903,-5031 604,-1432 1461,-2521 2576,-3263 1111,-745 2335,-1115 3673,-1115 1517,0 2790,469 3823,1411 1035,942 1753,2262 2160,3969l-1972 568c-353,-1347 -862,-2322 -1531,-2937 -667,-615 -1508,-921 -2523,-921 -1164,0 -2134,340 -2918,1020 -783,683 -1333,1595 -1648,2743 -316,1144 -476,2326 -476,3543 0,1574 187,2942 561,4115 378,1170 960,2047 1754,2628 794,580 1651,868 2575,868 1123,0 2071,-396 2851,-1182 779,-791 1304,-1965 1581,-3518zm3545 -215c0,-2476 564,-4312 1696,-5503 943,-989 2093,-1489 3451,-1489 1509,0 2744,602 3700,1811 960,1204 1436,2869 1436,4992 0,1725 -211,3079 -635,4064 -423,989 -1040,1754 -1849,2301 -811,546 -1693,816 -2652,816 -1535,0 -2776,-598 -3726,-1801 -948,-1201 -1421,-2929 -1421,-5191zm1911 0c0,1717 308,2998 921,3849 615,856 1387,1282 2315,1282 924,0 1692,-431 2307,-1287 610,-856 918,-2163 918,-3917 0,-1655 -308,-2911 -925,-3762 -618,-851 -1383,-1277 -2300,-1277 -928,0 -1700,426 -2315,1272 -613,848 -921,2129 -921,3840zm10556 6691l0 -13377 1671 0 0 1901c809,-1471 1973,-2207 3494,-2207 663,0 1270,147 1823,435 558,292 971,670 1246,1144 278,468 469,1028 582,1672 66,422 101,1157 101,2207l0 8225 -1861 0 0 -8140c0,-920 -71,-1612 -216,-2072 -144,-456 -402,-822 -769,-1092 -370,-276 -800,-413 -1298,-413 -794,0 -1475,309 -2053,919 -575,615 -861,1777 -861,3492l0 7306 -1859 0zm11027 -3994l1839 -353c102,899 391,1586 864,2068 469,478 1129,719 1979,719 855,0 1488,-216 1902,-637 412,-426 621,-924 621,-1492 0,-517 -183,-916 -551,-1213 -253,-202 -888,-456 -1901,-765 -1361,-422 -2312,-783 -2837,-1092 -525,-306 -927,-731 -1199,-1274 -272,-541 -409,-1139 -409,-1792 0,-598 112,-1149 339,-1656 222,-511 529,-933 914,-1268 289,-259 683,-482 1180,-662 502,-182 1038,-272 1609,-272 862,0 1616,155 2269,456 653,301 1132,709 1443,1226 310,520 523,1208 638,2072l-1817 306c-83,-688 -324,-1227 -720,-1613 -394,-387 -955,-580 -1678,-580 -855,0 -1464,172 -1828,515 -367,344 -550,749 -550,1209 0,297 77,559 229,795 151,245 389,444 713,607 187,82 733,276 1643,577 1317,429 2234,778 2752,1053 522,270 932,670 1228,1191 296,521 444,1165 444,1939 0,757 -183,1467 -543,2137 -363,667 -884,1183 -1567,1548 -680,366 -1453,546 -2314,546 -1428,0 -2514,-361 -3262,-1083 -748,-723 -1225,-1793 -1430,-3212zm18522 3994l0 -1964c-857,1513 -2017,2265 -3486,2265 -646,0 -1253,-151 -1813,-451 -561,-301 -978,-684 -1249,-1140 -275,-459 -465,-1019 -575,-1681 -73,-447 -112,-1152 -112,-2120l0 -8286 1858 0 0 7417c0,1188 39,1983 113,2395 121,599 367,1063 744,1407 381,339 851,507 1408,507 557,0 1079,-171 1570,-521 491,-348 836,-825 1038,-1422 204,-602 307,-1476 307,-2615l0 -7168 1858 0 0 13377 -1661 0zm4537 0l0 -18469 1859 0 0 18469 -1859 0zm8805 -2029l268 2003c-522,134 -992,202 -1404,202 -677,0 -1200,-128 -1573,-390 -371,-259 -632,-603 -784,-1029 -151,-421 -229,-1315 -229,-2675l0 -7697 -1366 0 0 -1762 1366 0 0 -3316 1852 -1359 0 4675 1870 0 0 1762 -1870 0 0 7822c0,650 32,1063 96,1247 67,185 172,332 321,444 147,107 360,163 635,163 208,0 479,-30 818,-90zm1827 -13829l0 -2611 1863 0 0 2611 -1863 0zm0 15858l0 -13377 1863 0 0 13377 -1863 0zm4697 0l0 -13377 1671 0 0 1901c808,-1471 1973,-2207 3492,-2207 663,0 1270,147 1825,435 557,292 969,670 1244,1144 279,468 470,1028 583,1672 67,422 102,1157 102,2207l0 8225 -1863 0 0 -8140c0,-920 -69,-1612 -215,-2072 -144,-456 -402,-822 -768,-1092 -371,-276 -802,-413 -1299,-413 -794,0 -1474,309 -2054,919 -574,615 -860,1777 -860,3492l0 7306 -1858 0zm11429 1110l1810 327c73,679 286,1173 628,1487 461,417 1093,629 1890,629 865,0 1529,-212 1997,-629 470,-421 784,-1010 949,-1763 100,-464 142,-1431 135,-2910 -812,1164 -1825,1749 -3039,1749 -1510,0 -2677,-662 -3502,-1991 -825,-1323 -1242,-2920 -1242,-4773 0,-1276 190,-2455 568,-3534 381,-1079 931,-1914 1651,-2503 720,-584 1567,-882 2536,-882 1295,0 2365,641 3204,1919l0 -1613 1717 0 0 11563c0,2081 -175,3560 -521,4429 -350,868 -900,1556 -1654,2059 -756,504 -1684,758 -2787,758 -1310,0 -2368,-361 -3172,-1080 -809,-718 -1196,-1798 -1168,-3242zm1538 -8037c0,1754 286,3036 861,3840 571,808 1288,1208 2148,1208 854,0 1570,-400 2149,-1199 578,-804 868,-2060 868,-3776 0,-1638 -297,-2873 -893,-3702 -596,-831 -1316,-1247 -2155,-1247 -826,0 -1528,408 -2110,1230 -578,817 -868,2034 -868,3646z"/>
   <polygon class="fil6" points="123968,230041 117683,137580 160337,230030 "/>
   <path class="fil7" d="M78120 297306c-3156,-19258 -18279,-29050 -37101,-29050 -25351,0 -41019,17190 -41019,42215 0,27308 17953,40274 37972,40274 12295,0 19366,-4588 23610,-9593l979 7508 16537 0 0 -43086 -35142 0 0 16973 11315 0c-1306,5440 -7942,9031 -13165,9031 -12946,0 -16429,-10119 -16429,-21216 0,-13818 4788,-22957 14906,-22957 6637,0 11315,3481 13165,9901l24372 0zm15667 -26983l0 78337 23066 0 0 -26548c0,-6310 -871,-16864 -1632,-23719l217 0 14253 50267 17843 0 14254 -50267 217 0c-979,9031 -1631,17518 -1631,26330l0 23937 23065 0 0 -78337 -31009 0 -13817 48852 -13817 -48852 -31009 0zm179956 29920c-2067,-20128 -15449,-31987 -39385,-31987 -21869,0 -39061,15776 -39061,41126 0,25460 15668,41363 41562,41363 20673,0 35144,-12204 37428,-32440l-24697 0c-980,7506 -4897,13273 -13165,13273 -13056,0 -15450,-10336 -15450,-21326 0,-15123 5441,-22847 14470,-22847 8052,0 13165,4678 13927,12838l24371 0z"/>
  </g>
 </g>
</svg>
